{
  "project_info": {
    "project_number": "610049906228",
    "firebase_url": "https://pemdatabase.firebaseio.com",
    "project_id": "pemdatabase",
    "storage_bucket": "pemdatabase.appspot.com"
  },
  "client": [
    {
      "client_info": {
        "mobilesdk_app_id": "1:610049906228:android:85da0d539a7567e7",
        "android_client_info": {
          "package_name": "com.example.pem"
        }
      },
      "oauth_client": [
        {
          "client_id": "610049906228-viv0lfnervhhb1tic4e3g1cs26k9b1bf.apps.googleusercontent.com",
          "client_type": 3
        }
      ],
      "api_key": [
        {
          "current_key": "AIzaSyAqhhldHV4VVPGLAZfSaSjAlC7hmGHlZu4"
        }
      ],
      "services": {
        "appinvite_service": {
          "other_platform_oauth_client": [
            {
              "client_id": "610049906228-viv0lfnervhhb1tic4e3g1cs26k9b1bf.apps.googleusercontent.com",
              "client_type": 3
            }
          ]
        }
      }
    }
  ],
  "configuration_version": "1"
}